[{
    "id": 1,
    "student": 4,
    "activity": 2,
    "status": "confirmed"
},{
    "id": 2,
    "student": 5,
    "activity": 1,
    "status": "confirmed"
},{
    "id": 3,
    "student": 4,
    "activity": 3,
    "status": "rejected"
},{
    "id": 4,
    "student": 6,
    "activity": 3,
    "status": "pending"
},{
    "id": 5,
    "student": 6,
    "activity": 4,
    "status": "confirmed"
}]
