[{
    "id": 4,
    "stid": "592115502",
    "name": "Guoqing",
    "surname": "Li",
    "imgurl": "https://s3-ap-southeast-1.amazonaws.com/se331/pics/tu.jpg",
    "dob": "1992-03-09"
},{
    "id": 5,
    "stid": "592115515",
    "name": "Mark",
    "surname": "Xiao",
    "imgurl": "https://drive.google.com/uc?id=1k3EeC4ywp_pdHgwp_-J458kidHRcxzJz",
    "dob": "1998-07-16"
},{
    "id": 6,
    "stid": "592115000",
    "name": "James",
    "surname": "Blank",
    "imgurl": null,
    "dob": "2001-01-01"
},{
    "id": 7,
    "stid": "592115514",
    "name": "Tach",
    "surname": "Nazarov",
    "imgurl":  "https://drive.google.com/uc?id=1ilgBKln1Isgw9JcBz5yqBoB8QZQROvQs",
    "dob": "1999-04-23"
},{
    "id": 8,
    "stid": "592115516",
    "name": "Nile",
    "surname": "Lin",
    "imgurl": "https://drive.google.com/uc?id=1XtJKUvQQFU8JWV0walpNsdzWBAlcvqeE",
    "dob": "1999-04-23"
},{
    "id": 9,
    "stid": "592115029",
    "name": "Saksit",
    "surname": "Namhung",
    "imgurl": "https://drive.google.com/uc?id=1lLY1M-2B3WCdqCRT443LIJxMkmbSGxNA",
    "dob": "1997-12-26"
}]
