[{
    "id": 1,
    "email": "admin@test.com",
    "pass": "test",
    "type": "admin",
    "status": "ok"
},{
    "id": 2,
    "email": "dto@test.com",
    "pass": "test",
    "type": "teacher",
    "status": "ok"
},{
    "id": 3,
    "email": "pree@test.com",
    "pass": "test",
    "type": "teacher",
    "status": "ok"
},{
    "id": 4,
    "email": "lee@test.com",
    "pass": "test",
    "type": "student",
    "status": "ok"
},{
    "id": 5,
    "email": "mark@test.com",
    "pass": "test",
    "type": "student",
    "status": "ok"
},{
    "id": 6,
    "email": "james@test.com",
    "pass": "test",
    "type": "student",
    "status": "ok"
},{
    "id": 7,
    "email": "tach@test.com",
    "pass": "test",
    "type": "new-student",
    "status": "new"
},{
    "id": 8,
    "email": "bogus@test.com",
    "pass": "test",
    "type": "new-student",
    "status": "reject"
},{
    "id": 9,
    "email": "saksit@test.com",
    "pass": "test",
    "type": "new-student",
    "status": "new"
},{
    "id": 10,
    "email": "joe@test.com",
    "pass": "test",
    "type": "teacher",
    "status": "ok"
},{
    "id": 11,
    "email": "teuy@test.com",
    "pass": "test",
    "type": "teacher",
    "status": "ok"
}]
